charged_residues	D
charged_residues	R
charged_residues	E
charged_residues	K
charged_residues	H
hydrophillic_and_neutral	N
hydrophillic_and_neutral	Q
hydrophillic_and_neutral	S
hydrophillic_and_neutral	T
hydrophillic_and_neutral	Y
basic_polar_or_pos_charged	H
basic_polar_or_pos_charged	K
basic_polar_or_pos_charged	R
acidic_or_neg_charged	D
acidic_or_neg_charged	E
aliphatic	A
aliphatic	G
aliphatic	I
aliphatic	L
aliphatic	V
aromatic	F
aromatic	W
aromatic	Y
small	D
small	N
small	T
tiny	A
tiny	G
tiny	P
tiny	S
large	F
large	R
large	W
large	Y
hydrophobic_and_aromatic	W
hydrophobic_and_aromatic	F
hydrophobic_and_neutral	A
hydrophobic_and_neutral	C
hydrophobic_and_neutral	G
hydrophobic_and_neutral	I
hydrophobic_and_neutral	L
hydrophobic_and_neutral	M
hydrophobic_and_neutral	F
hydrophobic_and_neutral	P
hydrophobic_and_neutral	W
hydrophobic_and_neutral	V
amidic	N
amidic	Q
cyclic	P
hydroxylic	S
hydroxylic	T
sulfur	C
sulfur	M
h_bonding	C
h_bonding	D
h_bonding	E
h_bonding	H
h_bonding	K
h_bonding	N
h_bonding	Q
h_bonding	R
h_bonding	S
h_bonding	T
h_bonding	W
h_bonding	Y
acidic_and_amide	D
acidic_and_amide	E
acidic_and_amide	N
acidic_and_amide	Q
ionizable	D
ionizable	E
ionizable	H
ionizable	C
ionizable	Y
ionizable	K
ionizable	R
sulfer_bonding	C